module bitbucket.org/martin_kedmenec/module

go 1.17

require (
	github.com/go-git/go-billy/v5 v5.3.2-0.20210804024030-7ab80d7c013d
	github.com/go-git/go-git/v5 v5.4.2
	github.com/manifoldco/promptui v0.9.0
	github.com/spf13/cobra v1.3.0
)

require (
	github.com/Microsoft/go-winio v0.5.1 // indirect
	github.com/ProtonMail/go-crypto v0.0.0-20220113124808-70ae35bab23f // indirect
	github.com/acomagu/bufpipe v1.0.3 // indirect
	github.com/chzyer/readline v0.0.0-20180603132655-2972be24d48e // indirect
	github.com/emirpasic/gods v1.12.0 // indirect
	github.com/go-git/gcfg v1.5.0 // indirect
	github.com/imdario/mergo v0.3.12 // indirect
	github.com/inconshreveable/mousetrap v1.0.0 // indirect
	github.com/jbenet/go-context v0.0.0-20150711004518-d14ea06fba99 // indirect
	github.com/kevinburke/ssh_config v1.1.0 // indirect
	github.com/mitchellh/go-homedir v1.1.0 // indirect
	github.com/sergi/go-diff v1.2.0 // indirect
	github.com/spf13/pflag v1.0.5 // indirect
	github.com/xanzy/ssh-agent v0.3.1 // indirect
	golang.org/x/crypto v0.0.0-20220128200615-198e4374d7ed // indirect
	golang.org/x/net v0.0.0-20220127200216-cd36cc0744dd // indirect
	golang.org/x/sys v0.0.0-20220128215802-99c3d69c2c27 // indirect
	gopkg.in/warnings.v0 v0.1.2 // indirect
)
